{
  "results": [
    {
      "id": "1",
      "0": "1",
      "race_id": "1",
      "1": "1",
      "placement": "1",
      "2": "1",
      "name": "Shiloh Deloney",
      "3": "Shiloh Deloney",
      "time": "2:20:00",
      "4": "2:20:00",
      "state": "CA",
      "5": "CA"
    },
    {
      "id": "2",
      "0": "2",
      "race_id": "1",
      "1": "1",
      "placement": "2",
      "2": "2",
      "name": "Mike Clonts",
      "3": "Mike Clonts",
      "time": "2:28:00",
      "4": "2:28:00",
      "state": "WI",
      "5": "WI"
    },
    {
      "id": "3",
      "0": "3",
      "race_id": "1",
      "1": "1",
      "placement": "3",
      "2": "3",
      "name": "Sharlene Claro",
      "3": "Sharlene Claro",
      "time": "2:36:00",
      "4": "2:36:00",
      "state": "NY",
      "5": "NY"
    },
    {
      "id": "4",
      "0": "4",
      "race_id": "1",
      "1": "1",
      "placement": "4",
      "2": "4",
      "name": "Marlo Dicks",
      "3": "Marlo Dicks",
      "time": "2:44:00",
      "4": "2:44:00",
      "state": "IL",
      "5": "IL"
    },
    {
      "id": "5",
      "0": "5",
      "race_id": "1",
      "1": "1",
      "placement": "5",
      "2": "5",
      "name": "Luann Hoffman",
      "3": "Luann Hoffman",
      "time": "2:52:00",
      "4": "2:52:00",
      "state": "MI",
      "5": "MI"
    },
    {
      "id": "6",
      "0": "6",
      "race_id": "1",
      "1": "1",
      "placement": "6",
      "2": "6",
      "name": "Darcel Papadopoulos",
      "3": "Darcel Papadopoulos",
      "time": "3:00:00",
      "4": "3:00:00",
      "state": "MN",
      "5": "MN"
    },
    {
      "id": "7",
      "0": "7",
      "race_id": "1",
      "1": "1",
      "placement": "7",
      "2": "7",
      "name": "Stephenie Knowles",
      "3": "Stephenie Knowles",
      "time": "3:08:00",
      "4": "3:08:00",
      "state": "CA",
      "5": "CA"
    },
    {
      "id": "8",
      "0": "8",
      "race_id": "1",
      "1": "1",
      "placement": "8",
      "2": "8",
      "name": "Erica Fiscus",
      "3": "Erica Fiscus",
      "time": "3:16:00",
      "4": "3:16:00",
      "state": "WI",
      "5": "WI"
    },
    {
      "id": "9",
      "0": "9",
      "race_id": "1",
      "1": "1",
      "placement": "9",
      "2": "9",
      "name": "Tien Lucius",
      "3": "Tien Lucius",
      "time": "3:24:00",
      "4": "3:24:00",
      "state": "NY",
      "5": "NY"
    },
    {
      "id": "10",
      "0": "10",
      "race_id": "1",
      "1": "1",
      "placement": "10",
      "2": "10",
      "name": "Marguerita Murden",
      "3": "Marguerita Murden",
      "time": "3:32:00",
      "4": "3:32:00",
      "state": "IL",
      "5": "IL"
    },
    {
      "id": "11",
      "0": "11",
      "race_id": "1",
      "1": "1",
      "placement": "11",
      "2": "11",
      "name": "Vivian Ponte",
      "3": "Vivian Ponte",
      "time": "3:40:00",
      "4": "3:40:00",
      "state": "MI",
      "5": "MI"
    },
    {
      "id": "12",
      "0": "12",
      "race_id": "1",
      "1": "1",
      "placement": "12",
      "2": "12",
      "name": "Marquetta Stansbury",
      "3": "Marquetta Stansbury",
      "time": "3:48:00",
      "4": "3:48:00",
      "state": "MN",
      "5": "MN"
    },
    {
      "id": "13",
      "0": "13",
      "race_id": "1",
      "1": "1",
      "placement": "13",
      "2": "13",
      "name": "Brittaney Castillon",
      "3": "Brittaney Castillon",
      "time": "3:56:00",
      "4": "3:56:00",
      "state": "CA",
      "5": "CA"
    },
    {
      "id": "14",
      "0": "14",
      "race_id": "1",
      "1": "1",
      "placement": "14",
      "2": "14",
      "name": "Roxana Mathisen",
      "3": "Roxana Mathisen",
      "time": "4:04:00",
      "4": "4:04:00",
      "state": "WI",
      "5": "WI"
    },
    {
      "id": "15",
      "0": "15",
      "race_id": "1",
      "1": "1",
      "placement": "15",
      "2": "15",
      "name": "Rosario Blakeney",
      "3": "Rosario Blakeney",
      "time": "4:12:00",
      "4": "4:12:00",
      "state": "NY",
      "5": "NY"
    },
    {
      "id": "16",
      "0": "16",
      "race_id": "1",
      "1": "1",
      "placement": "16",
      "2": "16",
      "name": "Inell Bellinger",
      "3": "Inell Bellinger",
      "time": "4:20:00",
      "4": "4:20:00",
      "state": "IL",
      "5": "IL"
    },
    {
      "id": "17",
      "0": "17",
      "race_id": "1",
      "1": "1",
      "placement": "17",
      "2": "17",
      "name": "Devona Rubalcava",
      "3": "Devona Rubalcava",
      "time": "4:28:00",
      "4": "4:28:00",
      "state": "MI",
      "5": "MI"
    },
    {
      "id": "18",
      "0": "18",
      "race_id": "1",
      "1": "1",
      "placement": "18",
      "2": "18",
      "name": "Stormy Bamburg",
      "3": "Stormy Bamburg",
      "time": "4:36:00",
      "4": "4:36:00",
      "state": "MN",
      "5": "MN"
    },
    {
      "id": "19",
      "0": "19",
      "race_id": "1",
      "1": "1",
      "placement": "19",
      "2": "19",
      "name": "Nolan Kell",
      "3": "Nolan Kell",
      "time": "4:44:00",
      "4": "4:44:00",
      "state": "CA",
      "5": "CA"
    },
    {
      "id": "20",
      "0": "20",
      "race_id": "1",
      "1": "1",
      "placement": "20",
      "2": "20",
      "name": "Cherly Burg",
      "3": "Cherly Burg",
      "time": "4:52:00",
      "4": "4:52:00",
      "state": "WI",
      "5": "WI"
    },
    {
      "id": "21",
      "0": "21",
      "race_id": "1",
      "1": "1",
      "placement": "21",
      "2": "21",
      "name": "Minerva Maye",
      "3": "Minerva Maye",
      "time": "5:00:00",
      "4": "5:00:00",
      "state": "NY",
      "5": "NY"
    },
    {
      "id": "22",
      "0": "22",
      "race_id": "1",
      "1": "1",
      "placement": "22",
      "2": "22",
      "name": "Jona Marte",
      "3": "Jona Marte",
      "time": "5:08:00",
      "4": "5:08:00",
      "state": "IL",
      "5": "IL"
    },
    {
      "id": "23",
      "0": "23",
      "race_id": "1",
      "1": "1",
      "placement": "23",
      "2": "23",
      "name": "Jule Tee",
      "3": "Jule Tee",
      "time": "5:16:00",
      "4": "5:16:00",
      "state": "MI",
      "5": "MI"
    },
    {
      "id": "24",
      "0": "24",
      "race_id": "1",
      "1": "1",
      "placement": "24",
      "2": "24",
      "name": "Bev Larkin",
      "3": "Bev Larkin",
      "time": "5:24:00",
      "4": "5:24:00",
      "state": "MN",
      "5": "MN"
    },
    {
      "id": "25",
      "0": "25",
      "race_id": "1",
      "1": "1",
      "placement": "25",
      "2": "25",
      "name": "Alane Cantrell",
      "3": "Alane Cantrell",
      "time": "5:32:00",
      "4": "5:32:00",
      "state": "CA",
      "5": "CA"
    },
    {
      "id": "26",
      "0": "26",
      "race_id": "1",
      "1": "1",
      "placement": "26",
      "2": "26",
      "name": "Mathilde Mahlum",
      "3": "Mathilde Mahlum",
      "time": "5:40:00",
      "4": "5:40:00",
      "state": "WI",
      "5": "WI"
    },
    {
      "id": "27",
      "0": "27",
      "race_id": "1",
      "1": "1",
      "placement": "27",
      "2": "27",
      "name": "Amie Stonge",
      "3": "Amie Stonge",
      "time": "5:48:00",
      "4": "5:48:00",
      "state": "NY",
      "5": "NY"
    }
  ]
}
